Division,WeightClassKg,Place,Name,Team,BodyweightKg,Best3SquatKg,Best3BenchKg,Best3DeadliftKg,TotalKg,Equipment,Event,Sex
Boys,51.71,1,Robert Chapa,Gregory-Portland,50.98,174.63,92.99,190.51,458.13,Single-ply,SBD,M
Boys,51.71,2,Thomas Soto,Corpus Christi Calallen,51.44,165.56,86.18,192.78,444.52,Single-ply,SBD,M
Boys,51.71,3,Bruizer Del Bosque,Bishop,48.76,145.15,83.91,154.22,383.29,Single-ply,SBD,M
Boys,51.71,4,Robert Ramos,Corpus Christi Tuloso-Midway,50.58,129.27,65.77,127.01,322.05,Single-ply,SBD,M
Boys,51.71,5,Randy Trevino,Gregory-Portland,48.81,102.06,54.43,111.13,267.62,Single-ply,SBD,M
Boys,55.79,6,Garrett Wildman,Banquete,51.8,92.99,47.63,115.67,256.28,Single-ply,SBD,M
Boys,51.71,DQ,Bobby Bourlon,Banquete,50.12,102.06,,,,Single-ply,SBD,M
Boys,55.79,1,Daniel Chapa,Gregory-Portland,54.2,181.44,104.33,195.04,480.81,Single-ply,SBD,M
Boys,59.87,2,Dallas de la Cruz,Mathis,55.97,172.37,86.18,170.1,428.64,Single-ply,SBD,M
Boys,59.87,3,Jonathan Starks,Banquete,56.02,131.54,86.18,163.29,381.02,Single-ply,SBD,M
Boys,55.79,4,Rj Hinojosa,Banquete,53.52,138.35,72.57,140.61,351.53,Single-ply,SBD,M
Boys,55.79,5,Edward Davidson,Alice,55.79,120.2,74.84,142.88,337.93,Single-ply,SBD,M
Boys,59.87,6,Breadley Mickey,Gregory-Portland,55.88,117.93,65.77,149.69,333.39,Single-ply,SBD,M
Boys,55.79,7,JD Rodriguez,Ingleside,55.07,127.01,72.57,124.74,324.32,Single-ply,SBD,M
Boys,55.79,8,Dustin Padilla,Sinton,54.88,102.06,70.31,127.01,299.37,Single-ply,SBD,M
Boys,59.87,1,Ryan Yanez,Gregory-Portland,58.6,167.83,108.86,179.17,455.86,Single-ply,SBD,M
Boys,67.13,2,Jeff Kearns,Gregory-Portland,60.06,165.56,102.06,181.44,449.06,Single-ply,SBD,M
Boys,67.13,3,Arnold Bueno,Banquete,60.06,158.76,102.06,151.95,412.77,Single-ply,SBD,M
Boys,67.13,4,Josue Gonzalez #2,Corpus Christi Calallen,60.1,145.15,86.18,151.95,383.29,Single-ply,SBD,M
Boys,59.87,5,Ricky Hinojosa,Port Lavaca Calhoun,56.88,133.81,90.72,149.69,374.21,Single-ply,SBD,M
Boys,59.87,6,Robert Seward,Corpus Christi Calallen,58.51,129.27,81.65,163.29,374.21,Single-ply,SBD,M
Boys,59.87,7,Jake Gamez,Beeville Jones,56.7,122.47,79.38,151.95,353.8,Single-ply,SBD,M
Boys,59.87,8,Sam Day,Rockport-Fulton,58.97,111.13,65.77,115.67,292.57,Single-ply,SBD,M
Boys,59.87,9,Fabian Tijernia,Mathis,57.24,113.4,65.77,111.13,290.3,Single-ply,SBD,M
Boys,59.87,10,Colin Moore,Rockport-Fulton,58.06,83.91,70.31,106.59,260.82,Single-ply,SBD,M
Boys,59.87,DQ,Colton Hahn,Port Lavaca Calhoun,58.74,,,,,Single-ply,SBD,M
Boys,67.13,1,JJ Gonzales,Gregory-Portland,65.54,238.14,138.35,224.53,601.01,Single-ply,SBD,M
Boys,67.13,2,Matt Buentello,Corpus Christi Tuloso-Midway,66.86,197.31,104.33,199.58,501.22,Single-ply,SBD,M
Boys,67.13,3,Miguel Oliva,Robstown,64.59,190.51,108.86,183.7,483.08,Single-ply,SBD,M
Boys,67.13,4,Jared Reilly,Corpus Christi Calallen,66.68,174.63,104.33,204.12,483.08,Single-ply,SBD,M
Boys,67.13,5,Josh Munoz,Beeville Jones,65.86,172.37,117.93,181.44,471.74,Single-ply,SBD,M
Boys,67.13,6,Benji Gomez,Beeville Jones,66.22,174.63,102.06,181.44,458.13,Single-ply,SBD,M
Boys,67.13,7,Jimmy Gonzales,Port Lavaca Calhoun,63.96,147.42,90.72,176.9,415.04,Single-ply,SBD,M
Boys,67.13,8,AJ Jiminian,Alice,60.78,124.74,79.38,149.69,353.8,Single-ply,SBD,M
Boys,67.13,9,Quinten Moreno,Gregory-Portland,62.32,124.74,79.38,145.15,349.27,Single-ply,SBD,M
Boys,67.13,10,Conner Holadas,Port Lavaca Calhoun,65.32,122.47,72.57,138.35,333.39,Single-ply,SBD,M
Boys,67.13,11,David Lopez,Beeville Jones,63.68,81.65,47.63,102.06,231.33,Single-ply,SBD,M
Boys,67.13,DQ,Daniel Green,Gregory-Portland,61.87,86.18,61.23,117.93,,Single-ply,SBD,M
Boys,67.13,DQ,Jonathan Calzada,Gregory-Portland,60.6,97.52,63.5,131.54,,Single-ply,SBD,M
Boys,67.13,DQ,Marquis Barrolle,Ingleside,61.69,,,,,Single-ply,SBD,M
Boys,67.13,DQ,Christian Diaz,Ingleside,63.05,,,,,Single-ply,SBD,M
Boys,67.13,DQ,Phong Tran,Rockport-Fulton,64.95,197.31,,,,Single-ply,SBD,M
Boys,67.13,DQ,Juan Gonzalez,Alice,62.14,,,,,Single-ply,SBD,M
Boys,82.1,1,Stevin Leal,Corpus Christi Tuloso-Midway,75.07,233.6,129.27,215.46,578.33,Single-ply,SBD,M
Boys,82.1,2,Andy Mohl,Corpus Christi Tuloso-Midway,75.02,219.99,140.61,210.92,571.53,Single-ply,SBD,M
Boys,74.84,3,Paul Villarreal,Sinton,72.12,174.63,113.4,206.38,494.42,Single-ply,SBD,M
Boys,74.84,4,Nathan McRae,Ingleside,74.03,183.7,124.74,183.7,492.15,Single-ply,SBD,M
Boys,74.84,5,Christian Stiles,Corpus Christi Calallen,69.4,172.37,95.25,192.78,460.4,Single-ply,SBD,M
Boys,74.84,6,Dillon Torres,Beeville Jones,69.85,154.22,108.86,192.78,455.86,Single-ply,SBD,M
Boys,74.84,7,Jose Gonzalez #15,Alice,72.67,163.29,83.91,204.12,451.32,Single-ply,SBD,M
Boys,74.84,8,Wally Martinez,Sinton,73.03,151.95,115.67,192.78,460.4,Single-ply,SBD,M
Boys,74.84,9,Victor Ta,Port Lavaca Calhoun,70.49,179.17,88.45,181.44,449.06,Single-ply,SBD,M
Boys,74.84,10,Phillip Valadez,Gregory-Portland,74.66,158.76,108.86,181.44,449.06,Single-ply,SBD,M
Boys,74.84,11,Lorenzo Landen,Gregory-Portland,73.12,154.22,99.79,190.51,444.52,Single-ply,SBD,M
Boys,74.84,12,Drew Ortiz,Port Lavaca Calhoun,73.12,151.95,92.99,181.44,426.38,Single-ply,SBD,M
Boys,74.84,13,Nathan Sanchez #3,Corpus Christi Tuloso-Midway,68.72,170.1,88.45,163.29,421.84,Single-ply,SBD,M
Boys,74.84,14,Austin Lofthouse,Corpus Christi Tuloso-Midway,72.12,145.15,86.18,188.24,419.57,Single-ply,SBD,M
Boys,74.84,15,Will Caraker,Gregory-Portland,70.53,142.88,102.06,172.37,417.3,Single-ply,SBD,M
Boys,74.84,16,Pablo Garza,Gregory-Portland,74.84,163.29,95.25,154.22,412.77,Single-ply,SBD,M
Boys,74.84,17,Austin Castillo,Corpus Christi Tuloso-Midway,71.21,147.42,88.45,167.83,403.7,Single-ply,SBD,M
Boys,74.84,18,Brandon Sendejo,Alice,71.4,163.29,99.79,140.61,403.7,Single-ply,SBD,M
Boys,74.84,19,Gabriel Casarez,Port Lavaca Calhoun,74.84,156.49,77.11,163.29,396.89,Single-ply,SBD,M
Boys,74.84,20,Jacob Flores,Beeville Jones,74.48,176.9,79.38,138.35,394.63,Single-ply,SBD,M
Boys,74.84,21,Devin Pena,Robstown,74.16,147.42,86.18,154.22,387.82,Single-ply,SBD,M
Boys,74.84,22,Marco Navarro,Gregory-Portland,70.99,140.61,95.25,147.42,383.29,Single-ply,SBD,M
Boys,74.84,23,Carlos Carrasco,Port Lavaca Calhoun,67.81,151.95,86.18,113.4,351.53,Single-ply,SBD,M
Boys,74.84,DQ,Chris Hernandez,Gregory-Portland,67.59,,,,,Single-ply,SBD,M
Boys,74.84,DQ,Beto Chavarria,Alice,70.76,,,,,Single-ply,SBD,M
Boys,74.84,DQ,Andrew Kyrisch,Ingleside,73.94,154.22,,,,Single-ply,SBD,M
Boys,82.1,1,Gabriel Longoria,Corpus Christi Calallen,82.1,260.82,138.35,229.06,628.23,Single-ply,SBD,M
Boys,82.1,2,Kameron Handy,Corpus Christi Tuloso-Midway,81.74,233.6,142.88,219.99,596.47,Single-ply,SBD,M
Boys,89.81,3,Kirk Salinas,Banquete,82.19,233.6,136.08,224.53,594.21,Single-ply,SBD,M
Boys,82.1,4,Devin Lanier,Gregory-Portland,81.65,240.4,147.42,192.78,580.6,Single-ply,SBD,M
Boys,82.1,5,Brandon Castillo,Corpus Christi Calallen,80.29,217.72,136.08,215.46,569.26,Single-ply,SBD,M
Boys,82.1,6,Josh Perez,Sinton,80.47,183.7,136.08,215.46,535.24,Single-ply,SBD,M
Boys,89.81,7,A J Rojas,Beeville Jones,82.19,197.31,120.2,217.72,535.24,Single-ply,SBD,M
Boys,82.1,8,Leo Adams,Alice,82.1,185.97,145.15,190.51,521.63,Single-ply,SBD,M
Boys,89.81,9,Fernando Flores,Corpus Christi Tuloso-Midway,82.19,176.9,106.59,222.26,505.76,Single-ply,SBD,M
Boys,89.81,10,Andrew Reyes,Rockport-Fulton,82.33,190.51,124.74,190.51,505.76,Single-ply,SBD,M
Boys,82.1,11,Robert Leal,Corpus Christi Tuloso-Midway,81.42,192.78,117.93,158.76,469.47,Single-ply,SBD,M
Boys,82.1,12,Roy Saenz,Bishop,80.06,163.29,81.65,179.17,424.11,Single-ply,SBD,M
Boys,82.1,13,Jeremiah Keever,Bishop,80.92,176.9,77.11,170.1,424.11,Single-ply,SBD,M
Boys,82.1,14,Gabe Jimenez,Gregory-Portland,75.75,158.76,88.45,167.83,415.04,Single-ply,SBD,M
Boys,82.1,15,David Morales,Robstown,80.47,147.42,90.72,161.03,399.16,Single-ply,SBD,M
Boys,82.1,16,Zac Gilkerson,Rockport-Fulton,82.1,156.49,97.52,142.88,396.89,Single-ply,SBD,M
Boys,82.1,DQ,Ryan Torres,Gregory-Portland,79.38,,,,,Single-ply,SBD,M
Boys,82.1,DQ,Mike Boudieax,Port Lavaca Calhoun,78.24,138.35,,,,Single-ply,SBD,M
Boys,89.81,1,Alex Tanguma,Corpus Christi Calallen,88.63,238.14,149.69,240.4,628.23,Single-ply,SBD,M
Boys,89.81,2,AJ Alvarez,Bishop,88.09,206.38,111.13,208.65,526.17,Single-ply,SBD,M
Boys,89.81,3,Danny Snodgrass,Ingleside,84.82,206.38,127.01,174.63,508.02,Single-ply,SBD,M
Boys,89.81,4,Philip Barrientos,Bishop,85.28,185.97,115.67,192.78,494.42,Single-ply,SBD,M
Boys,89.81,5,Jacob Hernandez #6,Sinton,85.73,165.56,106.59,213.19,485.34,Single-ply,SBD,M
Boys,89.81,6,Ben Burkett,Bishop,87.32,174.63,108.86,172.37,455.86,Single-ply,SBD,M
Boys,89.81,7,Chris Izaguirre,Gregory-Portland,87.09,158.76,81.65,197.31,437.72,Single-ply,SBD,M
Boys,89.81,8,Dabi Reyna,Robstown,83.91,117.93,81.65,158.76,358.34,Single-ply,SBD,M
Boys,89.81,DQ,Riley Richardson,Gregory-Portland,85.82,154.22,92.99,170.1,,Single-ply,SBD,M
Boys,89.81,DQ,Tony Zapata,Alice,86.73,167.83,90.72,,,Single-ply,SBD,M
Boys,99.79,DQ,Levi Mair,Mathis,89.9,188.24,,,,Single-ply,SBD,M
Boys,99.79,1,Andres Castellanos,Corpus Christi Tuloso-Midway,92.17,272.16,142.88,263.08,678.12,Single-ply,SBD,M
Boys,99.79,2,Jared Dement,Gregory-Portland,95.16,213.19,170.1,204.12,587.4,Single-ply,SBD,M
Boys,99.79,3,Darren Pham,Rockport-Fulton,96.16,226.8,133.81,197.31,557.92,Single-ply,SBD,M
Boys,99.79,4,Chris Castillo,Corpus Christi Tuloso-Midway,91.63,199.58,122.47,210.92,532.97,Single-ply,SBD,M
Boys,109.77,5,Marc Hinojosa,Bishop,99.88,142.88,83.91,149.69,376.48,Single-ply,SBD,M
Boys,99.79,DQ,Tristan Pruner,Gregory-Portland,91.63,113.4,83.91,115.67,,Single-ply,SBD,M
Boys,99.79,DQ,Mark Marcha,Gregory-Portland,93.89,131.54,74.84,142.88,,Single-ply,SBD,M
Boys,99.79,DQ,Oscar Pamirez,Gregory-Portland,91.17,147.42,86.18,158.76,,Single-ply,SBD,M
Boys,99.79,DQ,Zach Soliz,Sinton,97.25,147.42,,,,Single-ply,SBD,M
Boys,99.79,DQ,Walter Altamirano,Beeville Jones,97.16,167.83,,,,Single-ply,SBD,M
Boys,99.79,DQ,Brenden Breland,Banquete,93.89,,,,,Single-ply,SBD,M
Boys,109.77,1,Zach Garcia,Alice,103.06,249.48,158.76,249.48,657.71,Single-ply,SBD,M
Boys,109.77,2,Blake Dahlberg,Gregory-Portland,108.86,251.74,140.61,215.46,607.81,Single-ply,SBD,M
Boys,109.77,3,Jarred Longerot,Mathis,101.15,240.4,122.47,240.4,603.28,Single-ply,SBD,M
Boys,109.77,4,Esteban Resendez,Alice,102.74,249.48,124.74,217.72,591.94,Single-ply,SBD,M
Boys,109.77,5,Tayler Nolte,Gregory-Portland,104.87,222.26,140.61,226.8,589.67,Single-ply,SBD,M
Boys,109.77,6,Michael Wiser,Corpus Christi Calallen,107.95,226.8,127.01,235.87,589.67,Single-ply,SBD,M
Boys,124.74,7,Brody DeForest,Beeville Jones,110,222.26,140.61,215.46,578.33,Single-ply,SBD,M
Boys,109.77,8,Matt Salazar,Corpus Christi Tuloso-Midway,102.6,226.8,145.15,204.12,576.06,Single-ply,SBD,M
Boys,109.77,9,Scout Betz,Gregory-Portland,109.23,226.8,122.47,199.58,548.85,Single-ply,SBD,M
Boys,109.77,10,Tony Barrera,Corpus Christi Tuloso-Midway,104.33,199.58,127.01,190.51,517.1,Single-ply,SBD,M
Boys,109.77,11,Cordell Echols,Ingleside,104.42,204.12,129.27,181.44,514.83,Single-ply,SBD,M
Boys,109.77,12,Jody Stratman,Port Lavaca Calhoun,101.33,172.37,106.59,158.76,437.72,Single-ply,SBD,M
Boys,109.77,13,Juan Gomez,Robstown,100.92,104.33,81.65,151.95,337.93,Single-ply,SBD,M
Boys,109.77,DQ,Rene Luna,Robstown,104.33,,,,,Single-ply,SBD,M
Boys,109.77,DQ,Ryan Arriga,Port Lavaca Calhoun,101.15,,,,,Single-ply,SBD,M
Boys,124.74,1,Justin Trevino,Robstown,122.47,235.87,147.42,210.92,594.21,Single-ply,SBD,M
Boys,124.74,2,Marcos Varra,Beeville Jones,110.77,224.53,142.88,183.7,551.11,Single-ply,SBD,M
Boys,124.74,3,Ryan Gutierrez,Rockport-Fulton,124.47,219.99,111.13,195.04,526.17,Single-ply,SBD,M
Boys,124.74,4,Warren Oaks,Alice,119.02,165.56,129.27,190.51,485.34,Single-ply,SBD,M
Boys,124.74,5,Cameron Ellerbee,Beeville Jones,113.62,161.03,104.33,172.37,437.72,Single-ply,SBD,M
Boys,124.74,DQ,Toshido Paz,Sinton,120.2,,,,,Single-ply,SBD,M
Boys,124.74,DQ,Conner Bearden,Ingleside,123.38,,,,,Single-ply,SBD,M
Boys,124.74+,1,Miguel Estrada,Rockport-Fulton,143.79,249.48,183.7,256.28,689.46,Single-ply,SBD,M
Boys,124.74+,2,Dylan Strickland,Corpus Christi Calallen,132,249.48,156.49,226.8,632.76,Single-ply,SBD,M
Boys,124.74+,3,Steven Rodriguez,Corpus Christi Calallen,133.9,272.16,136.08,210.92,619.15,Single-ply,SBD,M
Boys,124.74+,4,Victor Quiroga,Beeville Jones,137.21,231.33,127.01,195.04,553.38,Single-ply,SBD,M
Boys,124.74+,5,Hector Garza,Robstown,135.4,183.7,102.06,170.1,455.86,Single-ply,SBD,M
Boys,124.74+,DQ,Arturo Pena,Robstown,139.34,,,,,Single-ply,SBD,M
Boys,124.74+,DQ,Jacob Zuniga,Rockport-Fulton,132,,,,,Single-ply,SBD,M
Boys,124.74+,DQ,Adam Aleman,Beeville Jones,153.77,,,,,Single-ply,SBD,M
