Place,Name,Sex,BirthDate,Equipment,Division,BodyweightKg,WeightClassKg,Squat1Kg,Squat2Kg,Squat3Kg,Best3SquatKg,Bench1Kg,Bench2Kg,Bench3Kg,Best3BenchKg,Deadlift1Kg,Deadlift2Kg,Deadlift3Kg,Best3DeadliftKg,TotalKg,Event,Team
DQ,Noelia Prado,F,1999-02-11,Raw,J20-23,47.9,48,90,-95,95,95,-30,-30,-30,,85,90,-100,90,,SBD,Dynamo
1,Yohana Romero,F,2000-10-25,Raw,J20-23,55.9,56,107.5,-112.5,-112.5,107.5,35,40,-45,40,110,117.5,-125,117.5,265,SBD,Athletic
2,Florencia Yurico Villordo,F,2000-05-10,Raw,J20-23,54.1,56,70,-80,80,80,30,-35,-35,30,95,-105,105,105,215,SBD,Dynamo team
1,Rita Isabel Pelozo,F,1979-01-11,Raw,M40-49,78.8,82.5,125,135,,135,50,55,57.5,57.5,125,135,140,140,332.5,SBD,Dynamo team
1,Agustina Molina,F,1998-03-27,Raw,Open,64.7,67.5,105,115,-125,115,40,-42.5,42.5,42.5,105,110,-115,110,267.5,SBD,Dynamo team
1,Griselda Encina,F,1997-12-30,Raw,Open,70.3,75,130,-140,140,140,47.5,50,-55,50,145,155,-160,155,345,SBD,Dynamo team
NS,Camila Cabrera,F,1994-10-21,Raw,Open 24-39,,,,,,,,,,,,,,,,SBD,Dynamo team
1,Laura Meza,F,1987-04-08,Raw,Open 24-39,55.8,56,102.5,-107.5,-107.5,102.5,-45,50,-55,50,110,117.5,-125,117.5,270,SBD,Athletic
1,Franco Cecilia Lovato,F,1992-06-01,Raw,Open 24-39,63.3,67.5,115,122.5,127.5,127.5,-65,65,72.5,72.5,125,130,135,135,335,SBD,Dynamo team
2,Valeria Perez,F,1996-08-23,Raw,Open 24-39,62.6,67.5,115,-125,125,125,45,-50,-50,45,130,145,-152.5,145,315,SBD,Athletic
3,Gisela Benitez,F,1995-09-27,Raw,Open 24-39,66.6,67.5,107.5,112.5,-117.5,112.5,55,60,62.5,62.5,130,-137.5,-140,130,305,SBD,Dynamo team
4,Yanina Maricel Quintana,F,1991-02-14,Raw,Open 24-39,62.1,67.5,110,115,122.5,122.5,50,-55,55,55,100,110,115,115,292.5,SBD,Dynamo team
5,Sotelo Sonia Molina,F,1992-08-13,Raw,Open 24-39,66.2,67.5,95,-102.5,-102.5,95,37.5,-42.5,42.5,42.5,110,-115,115,115,252.5,SBD,Athletic
6,Jesica Acuña,F,1990-09-10,Raw,Open 24-39,67.4,67.5,90,97.5,-102.5,97.5,45,50,-55,50,-100,100,-110,100,247.5,SBD,Athletic
1,Luna Zacarias,F,2002-10-03,Raw,S17-19,59.9,60,85,95,-100,95,40,45,-50,45,85,95,100,100,240,SBD,Athletic
2,Brenda Vallejos,F,2003-05-02,Raw,S17-19,58.2,60,55,65,75,75,40,-45,-45,40,75,85,92.5,92.5,207.5,SBD,Dynamo team
1,Ahílen Ledesma,F,2004-09-03,Raw,S17-19,73.6,75,95,-100,102.5,102.5,50,57.5,60,60,115,-125,125,125,287.5,SBD,Dynamo team
1,Melisa Daniela Echeverria,F,2005-02-04,Raw,S17-19,79.4,82.5,95,-100,-100,95,40,45,-47.5,45,100,107.5,115,115,255,SBD,Dynamo team
1,Nara Gonzales,F,2007-03-28,Raw,T14-16,46,48,-85,90,97.5,97.5,37.5,-42.5,-42.5,37.5,80,-85,85,85,220,SBD,Dynamo team
1,Wanda Nara Gonzales,F,2007-03-28,Raw,T14-16,59.9,60,110,115,120,120,55,60,65,65,110,117.5,122.5,122.5,307.5,SBD,Dynamo team
2,Candela Morales,F,2006-03-10,Raw,T14-16,59.9,60,-105,105,110,110,-35,-40,40,40,105,110,120,120,270,SBD,Atlas Yim
NS,Cristian Alarcón,M,2001-05-23,Raw,J20-23,,,,,,,,,,,,,,,,SBD,Atlas Yim
NS,Meza Ernesto Arauz,M,2001-10-10,Raw,J20-23,,,,,,,,,,,,,,,,SBD,La Cueva
NS,Tomas Arce,M,2002-05-30,Raw,J20-23,,,,,,,,,,,,,,,,SBD,La Cueva
NS,Leyes Ismael,M,2000-04-03,Raw,J20-23,,,,,,,,,,,,,,,,SBD,free fire
NS,Rafael Navarro,M,2003-02-17,Raw,J20-23,,,,,,,,,,,,,,,,SBD,Atlas Yim
NS,Francisco Sena,M,1999-11-05,Raw,J20-23,,,,,,,,,,,,,,,,SBD,Athletic
DQ,Yamil Wilson Valenzuela,M,2001-06-18,Raw,J20-23,65.1,67.5,,,,,,,,,,,,,,SBD,Dynamo team
1,Ezequiel Soto,M,2000-07-13,Raw,J20-23,71.2,75,140,150,-157.5,150,75,-80,,75,175,190,200,200,425,SBD,Dynamo team
2,Maximiliano Romero,M,1999-04-19,Raw,J20-23,68.3,75,-110,110,-125,110,70,77.5,80,80,165,-172.5,-172.5,165,355,SBD,Athletic
G,Enzo Romero,M,1999-05-13,Raw,J20-23,96,100,190,,,190,,,,,,,,,190,S,Dynamo team
NS,Fabian Bustamante,M,1988-10-13,Raw,Open,,,,,,,,,,,,,,,,SBD,free fire
NS,José Diaz,M,1994-10-05,Raw,Open,,,,,,,,,,,,,,,,SBD,Dynamo team
NS,Leyes Ismael,M,2000-04-03,Raw,Open,,,,,,,,,,,,,,,,SBD,free fire
NS,Federico Ojeda,M,1986-10-09,Raw,Open,,,,,,,,,,,,,,,,SBD,free fire
G,Enzo Romero,M,1999-05-13,Raw,Open,96,100,190,,,190,,,,,,,,,190,S,Dynamo team
NS,Lucas Ramirez,M,1995-04-03,Raw,Open 24-39,,,,,,,,,,,,,,,,SBD,Dynamo team
1,Dario Gomez,M,1996-09-11,Raw,Open 24-39,74.9,75,160,170,,170,115,120,-125,120,190,205,-210,205,495,SBD,Dynamo team
1,Alexis Ojeda,M,1998-11-13,Raw,Open 24-39,76.7,82.5,140,150,-160,150,-95,-95,95,95,180,190,-200,190,435,SBD,Atlas Yim
NS,Jerónimo Alcaraz,M,2005-03-22,Raw,S17-19,,,,,,,,,,,,,,,,SBD,Dynamo team
NS,Agustin Silva,M,2002-12-18,Raw,S17-19,,,,,,,,,,,,,,,,SBD,Atlas Yim
DQ,Alejandro Escobar,M,2005-07-12,Raw,S17-19,48.2,52,,,,,,,,,,,,,,SBD,Dynamo team
1,Nicolas Benítez,M,2002-11-20,Raw,S17-19,67.4,67.5,125,130,137.5,137.5,75,80,82.5,82.5,150,160,170,170,390,SBD,Atlas Yim
DQ,Rodrigo Arce,M,2003-03-16,Raw,S17-19,69.8,75,,,,,,,,,,,,,,SBD,Dynamo team
NS,Tobías Benjamín Samaniego,M,2006-05-24,Raw,T14-16,,,,,,,,,,,,,,,,SBD,La Cueva
1,Mauricio Centurión,M,2006-04-07,Raw,T14-16,72.1,75,130,140,,140,70,75,-80,75,-160,160,180,180,395,SBD,Atlas Yim
2,Santiago Hector Godoy,M,2006-06-03,Raw,T14-16,68.3,75,135,140,-155,140,70,-75,-75,70,140,-150,150,150,360,SBD,Dynamo team
1,Santiago Agustin Ojeda,M,2007-09-11,Raw,T14-16,100.3,110,100,110,120,120,60,-65,-65,60,120,130,140,140,320,SBD,Dynamo team
DQ,Miguel Aguirre,M,1974-04-09,Wraps,M40-49,96.1,100,,,,,,,,,,,,,,SBD,Titanium Gym
DQ,Mario Sotelo,M,1972-05-28,Wraps,M50-59,86.8,90,,,,,,,,,,,,,,SBD,Titanium Gym
DQ,Jose Aguirre,M,1974-11-09,Wraps,M50-59,97.8,100,,,,,,,,,,,,,,SBD,Titanium Gym
NS,Sergio Centurion,M,1984-02-17,Wraps,Open 24-39,,,,,,,,,,,,,,,,SBD,Dynamo team
DQ,Yamil Legal,M,1989-10-23,Wraps,Open 24-39,71.9,75,,,,,,,,,,,,,,SBD,Titanium Gym
DQ,Antonio Benitez,M,1990-07-15,Wraps,Open 24-39,86.3,90,,,,,,,,,,,,,,SBD,Titanium Gym
DQ,Lautaro Ezequiel Ojeda,M,2005-12-31,Wraps,S17-19,138.9,140,,,,,,,,,,,,,,SBD,Dynamo team
