Division,WeightClassKg,Place,Name,Team,BodyweightKg,Best3SquatKg,Best3BenchKg,Best3DeadliftKg,TotalKg,Equipment,Event,Sex
Boys,51.71,1,Kenieth Dodson,Pottsboro,46.54,95.25,47.63,90.72,233.6,Single-ply,SBD,M
Boys,51.71,2,Parker Sneed,Whitesboro,43,65.77,43.09,88.45,197.31,Single-ply,SBD,M
Boys,51.71,3,Tyler Rollwage,Aubrey,51.62,72.57,31.75,77.11,181.44,Single-ply,SBD,M
Boys,55.79,1,Austin Caldwell,Callisburg,52.25,88.45,45.36,97.52,231.33,Single-ply,SBD,M
Boys,55.79,2,Cole Prince,Aubrey,54.43,77.11,36.29,90.72,204.12,Single-ply,SBD,M
Boys,55.79,DQ,Clay Kelly,Aubrey,55.79,,,,,Single-ply,SBD,M
Boys,59.87,1,Stephen Nelson,Pottsboro,57.7,149.69,88.45,156.49,394.63,Single-ply,SBD,M
Boys,59.87,2,Andrew Berry,Whitewright,59.42,140.61,74.84,142.88,358.34,Single-ply,SBD,M
Boys,59.87,3,Charlie Radford,Aubrey,59.87,127.01,70.31,149.69,347,Single-ply,SBD,M
Boys,59.87,4,Cj Isley,Whitewright,59.69,106.59,56.7,127.01,290.3,Single-ply,SBD,M
Boys,59.87,5,Mark Steinhoff,Aubrey,58.06,81.65,63.5,95.25,240.4,Single-ply,SBD,M
Boys,59.87,6,Koby Parker,Pottsboro,56.06,90.72,56.7,88.45,235.87,Single-ply,SBD,M
Boys,59.87,7,Ej Marquez,Bells,58.15,83.91,58.97,77.11,219.99,Single-ply,SBD,M
Boys,67.13,1,Jeremy Croney,Sadler S & S Cons,65.05,181.44,95.25,183.7,460.4,Single-ply,SBD,M
Boys,67.13,2,Chavin Scales,Whitesboro,64.41,140.61,140.61,170.1,451.32,Single-ply,SBD,M
Boys,67.13,3,Garrett Syfert,Pottsboro,66.68,190.51,92.99,158.76,442.25,Single-ply,SBD,M
Boys,74.84,4,Josh Moynor,Pottsboro,67.22,172.37,83.91,149.69,405.97,Single-ply,SBD,M
Boys,67.13,5,Mason Thompson,Whitewright,62.23,136.08,74.84,138.35,349.27,Single-ply,SBD,M
Boys,67.13,6,Kyle Garner,Gunter,61.96,124.74,83.91,138.35,347,Single-ply,SBD,M
Boys,67.13,7,Aaron Decker,Whitewright,65.59,129.27,77.11,131.54,337.93,Single-ply,SBD,M
Boys,67.13,8,Eric Rodriquez,Aubrey,66.5,163.29,,163.29,326.59,Single-ply,SD,M
Boys,67.13,9,Stephen Steele,Pottsboro,60.51,120.2,70.31,129.27,319.78,Single-ply,SBD,M
Boys,67.13,10,Brad Lovick,Sadler S & S Cons,63.96,111.13,65.77,120.2,297.1,Single-ply,SBD,M
Boys,67.13,11,Tanner Rankin,Sadler S & S Cons,65.59,108.86,52.16,108.86,269.89,Single-ply,SBD,M
Boys,67.13,12,Alex Garcia #10,Callisburg,66.41,86.18,54.43,117.93,258.55,Single-ply,SBD,M
Boys,74.84,1,Dexter Loza,Aubrey,74.75,181.44,129.27,181.44,492.15,Single-ply,SBD,M
Boys,74.84,2,James Jackson #4,Callisburg,74.12,142.88,102.06,181.44,426.38,Single-ply,SBD,M
Boys,74.84,3,Daniel Grubbs,Collinsville,73.94,142.88,102.06,167.83,412.77,Single-ply,SBD,M
Boys,74.84,4,Kenny Watson,Whitewright,70.4,136.08,97.52,145.15,378.75,Single-ply,SBD,M
Boys,74.84,5,Collin Skaggs,Callisburg,71.76,136.08,74.84,154.22,365.14,Single-ply,SBD,M
Boys,74.84,6,Dustin Baker,Whitewright,71.94,127.01,81.65,136.08,344.73,Single-ply,SBD,M
Boys,74.84,7,Craig Wood,Whitewright,71.94,117.93,79.38,145.15,342.46,Single-ply,SBD,M
Boys,74.84,8,Ryan Bridges,Bells,70.58,113.4,70.31,129.27,312.98,Single-ply,SBD,M
Boys,74.84,9,Darrick Mata,Whitesboro,72.3,142.88,,147.42,290.3,Single-ply,SD,M
Boys,74.84,10,Sam Heath,Aubrey,72.57,142.88,,136.08,278.96,Single-ply,SD,M
Boys,82.1,1,Dru Hull,Sadler S & S Cons,79.65,183.7,124.74,197.31,505.76,Single-ply,SBD,M
Boys,82.1,2,Jeffery McClinton,Callisburg,80.65,158.76,95.25,185.97,439.98,Single-ply,SBD,M
Boys,82.1,3,Chance Bratcher,Sadler S & S Cons,81.28,174.63,99.79,165.56,439.98,Single-ply,SBD,M
Boys,82.1,4,Luis Erives,Sadler S & S Cons,77.11,129.27,92.99,163.29,385.55,Single-ply,SBD,M
Boys,82.1,5,Shawn Shugart,Callisburg,80.38,136.08,68.04,136.08,340.19,Single-ply,SBD,M
Boys,82.1,6,Donovan Inman,Aubrey,75.3,167.83,,163.29,331.12,Single-ply,SD,M
Boys,82.1,7,Jacob Jones,Callisburg,81.37,97.52,52.16,131.54,281.23,Single-ply,SBD,M
Boys,89.81,1,Grant McLean,Bells,87.45,170.1,90.72,165.56,426.38,Single-ply,SBD,M
Boys,89.81,2,Dakota Pickrell,Pottsboro,87.36,170.1,92.99,161.03,424.11,Single-ply,SBD,M
Boys,89.81,3,Adam Neal,Bells,88.99,163.29,83.91,147.42,394.63,Single-ply,SBD,M
Boys,89.81,4,Ekson Hernandez,Sadler S & S Cons,86.09,133.81,72.57,165.56,371.95,Single-ply,SBD,M
Boys,109.77,1,Dylan Cleveland,Pottsboro,99.97,142.88,81.65,142.88,367.41,Single-ply,SBD,M
Boys,99.79,2,Eric Reed,Pottsboro,95.07,124.74,79.38,117.93,322.05,Single-ply,SBD,M
Boys,99.79,3,Ryan Montgomery,Whitewright,93.44,79.38,65.77,106.59,251.74,Single-ply,SBD,M
Boys,109.77,1,Jacob Johnson,Aubrey,108.05,161.03,90.72,176.9,428.64,Single-ply,SBD,M
Boys,109.77,2,Adam Stapleton,Whitesboro,103.15,170.1,102.06,154.22,426.38,Single-ply,SBD,M
Boys,109.77,3,Billy Doyle,Pottsboro,102.51,181.44,83.91,158.76,424.11,Single-ply,SBD,M
Boys,109.77,4,Dillion Gage,Sadler S & S Cons,100.06,133.81,106.59,151.95,392.36,Single-ply,SBD,M
Boys,109.77,5,Logan Smithson,Callisburg,105.23,136.08,90.72,138.35,365.14,Single-ply,SBD,M
Boys,109.77,6,Joseph Taylor,Whitewright,105.6,111.13,68.04,120.2,299.37,Single-ply,SBD,M
Boys,109.77,7,Jeffrey Sanborn,Callisburg,103.24,140.61,77.11,,217.72,Single-ply,SB,M
Boys,124.74,1,Randel Furey,Sadler S & S Cons,120.47,210.92,115.67,197.31,523.9,Single-ply,SBD,M
Boys,124.74,2,Heber Hernandez,Sadler S & S Cons,110.59,172.37,102.06,195.04,469.47,Single-ply,SBD,M
Boys,124.74,3,Brice Goracke,Bells,118.21,161.03,102.06,158.76,421.84,Single-ply,SBD,M
Boys,124.74,4,Weston Osterman,Aubrey,113.67,140.61,90.72,136.08,367.41,Single-ply,SBD,M
